firmware/common/verilog/sim/flashctl_tb.vcd
$date
    Jun 21, 2015  12:20:02
$end
$version
    TOOL:	ncsim(64)	13.20-s028
$end
$timescale
    1 ps
$end

$scope module flashctl_tb $end
$var parameter  8 !    I2C_ADDR  $end
$var parameter 32 "    TEST_BUFFER_DEPTH  $end
$var wire      1 #    i2c_sda  $end
$var wire      1 $    i2c_scl  $end
$var wire      1 %    i2c_sda_in  $end
$var wire      1 &    i2c_scl_in  $end
$var wire      1 '    sys_rst  $end
$var wire      1 (    ledr  $end
$var wire      1 )    ledg  $end
$var reg       1 *    i2c_scl_out  $end
$var reg       1 +    i2c_sda_out  $end
$var reg       1 ,    i2c_ackn  $end
$var reg       1 -    i2c_din  $end
$var reg       1 .    i2c_toggle  $end
$var reg       1 /    i2c_addr  $end
$var reg      32 0    outBuf_count [31:0] $end
$var reg       1 1    flush_active  $end
$var reg       1 2    i2c_clk  $end
$var reg       1 3    clk_20mhz  $end
$var reg       1 4    GSRnX  $end
$var integer  32 5    i  $end

$scope module PUR_INST $end
$var wire      1 6    PUR  $end
$var parameter 32 7    RST_PULSE  $end
$var reg       1 8    PURNET  $end
$upscope $end


$scope module GSR_INST $end
$var wire      1 9    GSR  $end
$var wire      1 :    GSRNET  $end
$upscope $end


$scope module i_flasher $end
$var wire      1 #    SDA  $end
$var wire      1 $    SCL  $end
$var wire      1 '    GSRn  $end
$var wire      1 (    LEDR  $end
$var wire      1 )    LEDG  $end
$var wire      1 ;    xclk  $end
$var wire      1 <    red_flash  $end
$var wire      1 =    green_flash  $end
$var wire      8 >    XO [7:0] $end
$var wire      1 ?    GSRnX  $end
$var wire     32 @    MiscReg [31:0] $end
$var wire      1 A    XI_PWr  $end
$var wire     16 B    XI_PRWA [15:0] $end
$var wire      1 C    XI_PRdFinished  $end
$var wire     128 D    XI_PRdSubA [127:0] $end
$var wire      6 E    XI_PD [5:0] $end
$var reg       1 F    r  $end
$var reg       1 G    g  $end

$scope module IBgsr $end
$var wire      1 '    I  $end
$var wire      1 ?    O  $end
$upscope $end


$scope module GSR_GSR $end
$var wire      1 ?    GSR  $end
$var wire      1 H    GSRNET  $end
$upscope $end


$scope module i_pif_flasher $end
$var wire      1 <    red  $end
$var wire      1 =    green  $end
$var wire      1 ;    xclk  $end
$var wire      1 ?    sys_rst  $end
$var parameter 32 I    SIM_OSC_STR  $end
$var parameter 32 J    OSC_STR  $end
$var parameter 32 K    OSC_RATE  $end
$var parameter 32 L    TICK_RATE  $end
$var parameter 32 M    B  $end
$var parameter 32 N    FREQ_DIV  $end
$var parameter 32 O    SIM_TICK_LEN  $end
$var parameter 32 P    TICK_LEN  $end
$var parameter 32 Q    SIM_CLEN  $end
$var parameter 32 R    CLEN  $end
$var wire      4 S    DIV [3:0] $end
$var wire      1 T    osc  $end
$var wire      1 U    Tick  $end
$var wire      1 V    LoadN  $end
$var wire      5 W    Delta [4:0] $end
$var wire      2 X    LedPhase [1:0] $end
$var reg       1 Y    LedOn  $end
$var reg       1 Z    R  $end
$var reg       1 [    G  $end
$var reg       6 \    Accum [5:0] $end
$var reg       7 ]    DeltaReg [6:0] $end
$var reg       6 ^    Acc [5:0] $end
$var reg       6 _    Delt [5:0] $end

$scope module i_OSCH $end
$var wire      1 `    STDBY  $end
$var wire      1 T    OSC  $end
$var wire      1 a    SEDSTDBY  $end
$var parameter 32 b    NOM_FREQ  $end
$var wire      1 c    STDBYb  $end
$var reg       1 d    OSCb  $end
$var reg       1 e    OSC_r  $end
$var real     64 f    half_clk  $end
$upscope $end


$scope module i_DownCounter $end
$var parameter 32 g    BITS  $end
$var wire      1 T    Clk  $end
$var wire      1 ?    sys_rst  $end
$var wire      1 V    LoadN  $end
$var wire      1 h    CE  $end
$var wire      4 S    InitialVal [3:0] $end
$var wire      1 U    zero  $end
$var reg       5 i    Ctr [4:0] $end
$upscope $end

$upscope $end


$scope module i_pifwb $end
$var wire      1 $    i2c_SCL  $end
$var wire      1 #    i2c_SDA  $end
$var wire      1 ;    xclk  $end
$var wire      1 A    XI_PWr  $end
$var wire     16 B    XI_PRWA [15:0] $end
$var wire      1 C    XI_PRdFinished  $end
$var wire     128 D    XI_PRdSubA [127:0] $end
$var wire      6 E    XI_PD [5:0] $end
$var wire      8 >    XO [7:0] $end
$var wire      1 ?    sys_rst  $end
$var parameter  4 j    WBstart  $end
$var parameter  4 k    WBinit1  $end
$var parameter  4 l    WBinit2  $end
$var parameter  4 m    WBinit3  $end
$var parameter  4 n    WBinit4  $end
$var parameter  4 o    WBidle  $end
$var parameter  4 p    WBwaitTR  $end
$var parameter  4 q    WBin0  $end
$var parameter  4 r    WBout0  $end
$var parameter  4 s    WBout1  $end
$var parameter  4 t    WBwr  $end
$var parameter  4 u    WBrd  $end
$var parameter  8 v    I2C1_CR [7:0] $end
$var parameter  8 w    I2C1_CMDR [7:0] $end
$var parameter  8 x    I2C1_BR0 [7:0] $end
$var parameter  8 y    I2C1_BR1 [7:0] $end
$var parameter  8 z    I2C1_TXDR [7:0] $end
$var parameter  8 {    I2C1_SR [7:0] $end
$var parameter  8 |    I2C1_GCDR [7:0] $end
$var parameter  8 }    I2C1_RXDR [7:0] $end
$var parameter  8 ~    I2C1_IRQ [7:0] $end
$var parameter  8 !!   I2C1_IRQEN [7:0] $end
$var parameter  8 "!   I2C2_CR [7:0] $end
$var parameter  8 #!   I2C2_CMDR [7:0] $end
$var parameter  8 $!   I2C2_BR0 [7:0] $end
$var parameter  8 %!   I2C2_BR1 [7:0] $end
$var parameter  8 &!   I2C2_TXDR [7:0] $end
$var parameter  8 '!   I2C2_SR [7:0] $end
$var parameter  8 (!   I2C2_GCDR [7:0] $end
$var parameter  8 )!   I2C2_RXDR [7:0] $end
$var parameter  8 *!   I2C2_IRQ [7:0] $end
$var parameter  8 +!   I2C2_IRQEN [7:0] $end
$var parameter  8 ,!   CFG_CR [7:0] $end
$var parameter  8 -!   CFG_TXDR [7:0] $end
$var parameter  8 .!   CFG_SR [7:0] $end
$var parameter  8 /!   CFG_RXDR [7:0] $end
$var parameter  8 0!   CFG_IRQ [7:0] $end
$var parameter  8 1!   CFG_IRQEN [7:0] $end
$var wire      1 2!   wbDat_o [7] $end
$var wire      1 3!   wbDat_o [6] $end
$var wire      1 4!   wbDat_o [5] $end
$var wire      1 5!   wbDat_o [4] $end
$var wire      1 6!   wbDat_o [3] $end
$var wire      1 7!   wbDat_o [2] $end
$var wire      1 8!   wbDat_o [1] $end
$var wire      1 9!   wbDat_o [0] $end
$var wire      1 :!   wbAck_o  $end
$var reg       8 ;!   wbDat_i [7:0] $end
$var reg       8 <!   wbAddr [7:0] $end
$var reg       8 =!   wbOutBuff [7:0] $end
$var reg       1 >!   busy  $end
$var reg       1 ?!   txReady  $end
$var reg       1 @!   rxReady  $end
$var reg       1 A!   lastTxNak  $end
$var reg       1 B!   isAddr  $end
$var reg       1 C!   isData  $end
$var reg       1 D!   wbCyc  $end
$var reg       1 E!   wbStb  $end
$var reg       1 F!   wbWe  $end
$var reg       4 G!   WBstate [3:0] $end
$var reg       4 H!   rwReturn [3:0] $end
$var reg       1 I!   hitI2CSR  $end
$var reg       1 J!   hitI2CRXDR  $end
$var reg       1 K!   hitCFGRXDR  $end
$var reg       1 L!   cfgBusy  $end
$var reg      128 M!   RdSubAddr [127:0] $end
$var reg      128 N!   WrSubAddr [127:0] $end
$var reg      16 O!   rwAddr [15:0] $end
$var reg       6 P!   inData [5:0] $end
$var reg       1 Q!   XIloc_PWr  $end
$var reg      16 R!   XIloc_PRWA [15:0] $end
$var reg       1 S!   XIloc_PRdFinished  $end
$var reg      128 T!   XIloc_PRdSubA [127:0] $end
$var reg       6 U!   XIloc_PD [5:0] $end
$var reg      16 V!   rst_pipe [15:0] $end
$var wire      1 W!   rst  $end
$var wire      1 X!   wbRst  $end
$var wire      1 Y!   wbAck  $end
$var reg       4 Z!   nextState [3:0] $end
$var reg       1 [!   vSlaveTransmitting  $end
$var reg       1 \!   vTxRxRdy  $end
$var reg       1 ]!   vBusy  $end
$var reg       1 ^!   vTIP  $end
$var reg       1 _!   vRARC  $end
$var reg       1 `!   vTROE  $end

$scope module myEFB $end
$var wire      1 ;    wb_clk_i  $end
$var wire      1 X!   wb_rst_i  $end
$var wire      1 a!   wb_cyc_i  $end
$var wire      1 b!   wb_stb_i  $end
$var wire      1 c!   wb_we_i  $end
$var wire      1 d!   wb_adr_i [7] $end
$var wire      1 e!   wb_adr_i [6] $end
$var wire      1 f!   wb_adr_i [5] $end
$var wire      1 g!   wb_adr_i [4] $end
$var wire      1 h!   wb_adr_i [3] $end
$var wire      1 i!   wb_adr_i [2] $end
$var wire      1 j!   wb_adr_i [1] $end
$var wire      1 k!   wb_adr_i [0] $end
$var wire      1 l!   wb_dat_i [7] $end
$var wire      1 m!   wb_dat_i [6] $end
$var wire      1 n!   wb_dat_i [5] $end
$var wire      1 o!   wb_dat_i [4] $end
$var wire      1 p!   wb_dat_i [3] $end
$var wire      1 q!   wb_dat_i [2] $end
$var wire      1 r!   wb_dat_i [1] $end
$var wire      1 s!   wb_dat_i [0] $end
$var wire      1 2!   wb_dat_o [7] $end
$var wire      1 3!   wb_dat_o [6] $end
$var wire      1 4!   wb_dat_o [5] $end
$var wire      1 5!   wb_dat_o [4] $end
$var wire      1 6!   wb_dat_o [3] $end
$var wire      1 7!   wb_dat_o [2] $end
$var wire      1 8!   wb_dat_o [1] $end
$var wire      1 9!   wb_dat_o [0] $end
$var wire      1 :!   wb_ack_o  $end
$var wire      1 t!   i2c1_irqo  $end
$var wire      1 $    i2c1_scl  $end
$var wire      1 #    i2c1_sda  $end
$var wire      1 u!   scuba_vhi  $end
$var wire      1 v!   scuba_vlo  $end
$var wire      1 w!   i2c1_sdaoen  $end
$var wire      1 x!   i2c1_sdao  $end
$var wire      1 y!   i2c1_scloen  $end
$var wire      1 z!   i2c1_sclo  $end
$var wire      1 {!   i2c1_sdai  $end
$var wire      1 |!   i2c1_scli  $end

$scope module scuba_vhi_inst $end
$var wire      1 u!   Z  $end
$var supply1   1 }!   VSS  $end
$upscope $end


$scope module scuba_vlo_inst $end
$var wire      1 v!   Z  $end
$var supply0   1 ~!   VSS  $end
$upscope $end


$scope module BB1_sda $end
$var wire      1 x!   I  $end
$var wire      1 w!   T  $end
$var wire      1 {!   O  $end
$var wire      1 #    B  $end
$var supply1   1 !"   TSALL  $end
$var wire      1 ""   TN  $end
$var wire      1 #"   ENH  $end
$upscope $end


$scope module BB1_scl $end
$var wire      1 z!   I  $end
$var wire      1 y!   T  $end
$var wire      1 |!   O  $end
$var wire      1 $    B  $end
$var supply1   1 $"   TSALL  $end
$var wire      1 %"   TN  $end
$var wire      1 &"   ENH  $end
$upscope $end

$upscope $end

$upscope $end


$scope module i_pifctl $end
$var wire      1 ;    xclk  $end
$var wire      1 A    XI_PWr  $end
$var wire     16 B    XI_PRWA [15:0] $end
$var wire      1 C    XI_PRdFinished  $end
$var wire     128 D    XI_PRdSubA [127:0] $end
$var wire      6 E    XI_PD [5:0] $end
$var reg       8 '"   XO [7:0] $end
$var reg      32 ("   MiscReg [31:0] $end
$var wire      1 ?    sys_rst  $end
$var reg       6 )"   ScratchReg [5:0] $end
$var reg      32 *"   MiscRegLocal [31:0] $end
$var reg      32 +"   subAddr [31:0] $end
$var reg       8 ,"   IDscratch [7:0] $end
$var reg       8 -"   IDletter [7:0] $end
$var reg       8 ."   subOut [7:0] $end
$var reg       8 /"   regOut [7:0] $end
$var reg       8 0"   IdReadback [7:0] $end

$scope function to_4bit_vector $end
$var reg       4 1"   to_4bit_vector [3:0] $end
$var reg       1 2"   arg  $end
$upscope $end

$upscope $end


$scope module REG_BUF $end
$var wire      1 3"   I  $end
$var wire      1 (    O  $end
$var supply1   1 4"   TSALL  $end
$upscope $end


$scope module GREEN_BUF $end
$var wire      1 5"   I  $end
$var wire      1 )    O  $end
$var supply1   1 6"   TSALL  $end
$upscope $end

$upscope $end


$scope task i2c_sendbit $end
$var reg       1 7"   bit  $end
$upscope $end


$scope task i2c_sendbyte $end
$var reg       8 8"   byte [7:0] $end
$var integer  32 9"   i  $end
$upscope $end


$scope task i2c_recvbit $end
$var reg       8 :"   v [7:0] $end
$var reg       8 ;"   bi [7:0] $end
$var integer  32 <"   i  $end
$upscope $end


$scope task i2c_wr_start $end
$var reg       8 ="   i2c_addr [7:0] $end
$upscope $end


$scope task i2c_rd_start $end
$var reg       8 >"   i2c_addr [7:0] $end
$upscope $end


$scope task waitfor $end
$var reg      32 ?"   ticks [31:0] $end
$upscope $end


$scope task write_bus $end
$var reg       8 @"   x [7:0] $end
$var integer  32 A"   n  $end
$upscope $end


$scope task write_data $end
$var reg       6 B"   V [5:0] $end
$upscope $end


$scope task write_addr $end
$var reg       6 C"   Addr [5:0] $end
$upscope $end


$scope task flush $end
$var reg       8 D"   i2c_addr [7:0] $end
$var integer  32 E"   n  $end
$var integer  32 F"   i  $end
$var reg       8 G"   byte [7:0] $end
$upscope $end


$scope task read_reg $end
$var reg       8 H"   i2c_addr [7:0] $end
$var reg       1 I"   read_count  $end
$var reg       8 J"   v [7:0] $end
$var integer  32 K"   i  $end
$upscope $end

$upscope $end

$enddefinitions $end
$dumpvars
b1110101 1!
b1110100 0!
b1110011 /!
b1110010 .!
b1110001 -!
b1110000 ,!
b1010011 +!
b1010010 *!
b1010001 )!
b1010000 (!
b1001111 '!
b1001110 &!
b1001101 %!
b1001100 $!
b1001011 #!
b1001010 "!
b1001001 !!
b1001000 ~
b1000111 }
b1000110 |
b1000101 {
b1000100 z
b1000011 y
b1000010 x
b1000001 w
b1000000 v
b1011 u
b1010 t
b1001 s
b1000 r
b111 q
b110 p
b101 o
b100 n
b11 m
b10 l
b1 k
b0 j
b100 g
b110010001011100011000000111000 b
b100 R
b100 Q
b1000 P
b1000 O
b11110011001110111011010 N
b101 M
b10010110 L
b1000111010000100111111000000000 K
b110010001011100011000000111000 J
b110010001011100011000000111000 I
b1 7
b101 "
b10000010 !
x#
x$
x%
x&
0'
0(
0)
x*
x+
0,
x-
0.
0/
b0 0
01
02
03
04
b101 5
16
08
19
1:
0;
0<
0=
bx >
0?
bx @
xA
bx B
xC
bx D
bx E
0F
0G
0H
b1000 S
0T
0U
1V
b0 W
b0 X
0Y
0Z
0[
b0 \
b0 ]
b0 ^
b0 _
0`
0a
0c
0d
0e
r240.38 f
1h
b0 i
02!
03!
04!
05!
06!
07!
08!
09!
0:!
bx ;!
bx <!
bx =!
x>!
x?!
x@!
xA!
xB!
xC!
xD!
xE!
xF!
bx G!
bx H!
xI!
xJ!
xK!
xL!
bx M!
bx N!
bx O!
bx P!
xQ!
bx R!
xS!
bx T!
bx U!
bx0 V!
xW!
xX!
0Y!
bx Z!
x[!
x\!
x]!
x^!
x_!
x`!
xa!
xb!
xc!
xd!
xe!
xf!
xg!
xh!
xi!
xj!
xk!
xl!
xm!
xn!
xo!
xp!
xq!
xr!
xs!
0t!
1u!
0v!
xw!
0x!
1y!
0z!
x{!
x|!
1}!
0~!
1!"
x""
x#"
1$"
0%"
0&"
bx '"
bx ("
bx )"
bx *"
bx +"
b1xxxxxx ,"
b110xxxx -"
bx ."
b0 /"
bx 0"
bx 1"
x2"
03"
14"
05"
16"
x7"
bx 8"
bx 9"
bx :"
bx ;"
bx <"
bx ="
bx >"
bx ?"
bx @"
bx A"
bx B"
bx C"
bx D"
bx E"
bx F"
bx G"
bx H"
xI"
bx J"
bx K"
$end
#10
1w!
0""
0#"
#1000
18
#25000
13
#50000
03
#75000
13
#100000
14
03
1'
1?
1H
#125000
13
#150000
03
#175000
13
#200000
03
#225000
13
#240380
1d
1e
1T
1;
b11111 i
1Z
1[
b0 0"
b0 '"
b0 ("
b0 ."
b0 ,"
b0 -"
b0 +"
b10101 )"
b0 *"
b1111111111111111 V!
0I!
0J!
0K!
0Q!
b0 Z!
1W!
1U
0A
b0 @
b0 >
1=
1<
1X!
1F
1G
15"
13"
0V
1(
1)
#250000
03
#275000
13
#300000
03
#325000
13
#350000
03
#375000
13
#400000
04
03
0'
0?
0H
b0 i
0Z
0[
b1000001 ."
b1010101 ,"
b110xxxx -"
bx +"
b1111111111111110 V!
xI!
xJ!
xK!
0U
0=
0<
0F
0G
05"
03"
1V
0(
0)
#425000
13
#450000
03
#475000
13
#480760
0d
0e
0T
0;
#500000
03
#525000
13
#550000
03
#575000
13
#600000
03
#625000
13
#650000
03
#675000
13
#700000
03
#721140
1d
1e
1T
1;
b110xxxx ."
b1111111111111100 V!
b0 R!
b0 T!
b1 O!
b0 M!
b0 N!
b0 U!
0S!
b0 G!
b0 H!
0E!
0D!
0F!
0>!
0?!
0@!
0A!
b0 <!
b0 ;!
0^!
0]!
0_!
0[!
0\!
0`!
0B!
0C!
b0 P!
0L!
0l!
0m!
0n!
0o!
0p!
0q!
0r!
0s!
0d!
0e!
0f!
0g!
0h!
0i!
0j!
0k!
0c!
0a!
0b!
0C
b0 E
b0 D
b0 B
#725000
13
#750000
03
#775000
13
#800000
03
#825000
13
#850000
03
#875000
13
#900000
03
#925000
13
#950000
03
#961520
0d
0e
0T
0;
#975000
13
#1000000
03
#1025000
13
#1050000
03
#1075000
13
#1100000
03
#1125000
13
#1150000
03
#1175000
13
#1200000
03
#1201900
1d
1e
1T
1;
02"
b0 1"
b1100000 -"
b0 +"
b1111111111111000 V!
0I!
0J!
0K!
#1225000
13
#1250000
12
03
#1275000
13
#1300000
03
#1325000
13
#1350000
03
#1375000
13
#1400000
03
#1425000
13
#1442280
0d
0e
0T
0;
#1450000
03
#1475000
13
#1500000
b10 C"
b10 @"
b0 A"
b1 0
b1 ?"
03
#1525000
13
b1 B"
b1000001 @"
b1 A"
b10 0
#1550000
03
#1575000
13
b0 D"
11
b10 E"
#1600000
03
#1625000
13
#1630000
b0 ="
#1650000
03
#1675000
13
#1682660
1d
1e
1T
1;
b1000001 ."
b1111111111110000 V!
#1700000
03
#1725000
13
#1750000
03
#1775000
13
#1800000
03
#1825000
13
#1850000
03
#1875000
13
#1900000
03
#1923040
0d
0e
0T
0;
#1925000
13
#1950000
03
#1975000
13
#2000000
03
#2025000
13
#2050000
03
#2075000
13
#2100000
03
#2125000
13
#2150000
03
#2163420
1d
1e
1T
1;
b1111111111100000 V!
#2175000
13
#2200000
03
#2225000
13
#2250000
03
#2275000
13
#2300000
03
#2325000
13
#2350000
03
#2375000
13
#2400000
03
#2403800
0d
0e
0T
0;
#2425000
13
#2450000
03
#2475000
13
#2500000
02
03
#2525000
13
#2550000
03
#2575000
13
#2600000
03
#2625000
13
#2644180
1d
1e
1T
1;
b1111111111000000 V!
#2650000
03
#2675000
13
#2700000
03
#2725000
13
#2750000
03
#2775000
13
#2800000
03
#2825000
13
#2850000
03
#2875000
13
#2884560
0d
0e
0T
0;
#2900000
03
#2925000
13
#2950000
03
#2975000
13
#3000000
03
#3025000
13
#3050000
03
#3075000
13
#3100000
03
#3124940
1d
1e
1T
1;
b1111111110000000 V!
#3125000
13
#3150000
03
#3175000
13
#3200000
03
#3225000
13
#3250000
03
#3275000
13
#3300000
03
#3325000
13
#3350000
03
#3365320
0d
0e
0T
0;
#3375000
13
#3400000
03
#3425000
13
#3450000
03
#3475000
13
#3500000
03
#3525000
13
#3550000
03
#3575000
13
#3600000
03
#3605700
1d
1e
1T
1;
b1111111100000000 V!
#3625000
13
#3650000
03
#3675000
13
#3700000
03
#3725000
13
#3750000
12
03
1+
z#
z%
#3775000
13
#3800000
03
#3825000
13
#3846080
0d
0e
0T
0;
#3850000
03
#3875000
13
#3900000
03
#3925000
13
#3950000
03
#3975000
13
#4000000
03
#4025000
13
#4050000
03
#4075000
13
#4086460
1d
1e
1T
1;
b1111111000000000 V!
#4100000
03
#4125000
13
#4150000
03
#4175000
13
#4200000
03
#4225000
13
#4250000
03
#4275000
13
#4300000
03
#4325000
13
#4326840
0d
0e
0T
0;
#4350000
03
#4375000
13
#4400000
03
#4425000
13
#4450000
03
#4475000
13
#4500000
03
#4525000
13
#4550000
03
#4567220
1d
1e
1T
1;
b1111110000000000 V!
#4575000
13
#4600000
03
#4625000
13
#4650000
03
#4675000
13
#4700000
03
#4725000
13
#4750000
03
#4775000
13
#4800000
03
#4807600
0d
0e
0T
0;
#4825000
13
#4850000
03
#4875000
13
#4900000
03
#4925000
13
#4950000
03
#4975000
13
#5000000
02
03
#5025000
13
#5047980
1d
1e
1T
1;
b1111100000000000 V!
#5050000
03
#5075000
13
#5100000
03
#5125000
13
#5150000
03
#5175000
13
#5200000
03
#5225000
13
#5250000
03
#5275000
13
#5288360
0d
0e
0T
0;
#5300000
03
#5325000
13
#5350000
03
#5375000
13
#5400000
03
#5425000
13
#5450000
03
#5475000
13
#5500000
03
#5525000
13
#5528740
1d
1e
1T
1;
b1111000000000000 V!
#5550000
03
#5575000
13
#5600000
03
#5625000
13
#5650000
03
#5675000
13
#5700000
03
#5725000
13
#5750000
03
#5769120
0d
0e
0T
0;
#5775000
13
#5800000
03
#5825000
13
#5850000
03
#5875000
13
#5900000
03
#5925000
13
#5950000
03
#5975000
13
#6000000
03
#6009500
1d
1e
1T
1;
b1110000000000000 V!
#6025000
13
#6050000
03
#6075000
13
#6100000
03
#6125000
13
#6150000
03
#6175000
13
#6200000
03
#6225000
13
#6249880
0d
0e
0T
0;
#6250000
12
03
1*
z$
z&
#6275000
13
#6300000
03
#6325000
13
#6350000
03
#6375000
13
#6400000
03
#6425000
13
#6450000
03
#6475000
13
#6490260
1d
1e
1T
1;
b1100000000000000 V!
#6500000
03
#6525000
13
#6550000
03
#6575000
13
#6600000
03
#6625000
13
#6650000
03
#6675000
13
#6700000
03
#6725000
13
#6730640
0d
0e
0T
0;
#6750000
03
#6775000
13
#6800000
03
#6825000
13
#6850000
03
#6875000
13
#6900000
03
#6925000
13
#6950000
03
#6971020
1d
1e
1T
1;
b1000000000000000 V!
#6975000
13
#7000000
03
#7025000
13
#7050000
03
#7075000
13
#7100000
03
#7125000
13
#7150000
03
#7175000
13
#7200000
03
#7211400
0d
0e
0T
0;
#7225000
13
#7250000
03
#7275000
13
#7300000
03
#7325000
13
#7350000
03
#7375000
13
#7400000
03
#7425000
13
#7450000
03
#7451780
1d
1e
1T
1;
b0 V!
0W!
0X!
#7475000
13
#7500000
02
03
#7525000
13
#7550000
03
#7575000
13
#7600000
03
#7625000
13
#7650000
03
#7675000
13
#7692160
0d
0e
0T
0;
#7700000
03
#7725000
13
#7750000
03
#7775000
13
#7800000
03
#7825000
13
#7850000
03
#7875000
13
#7900000
03
#7925000
13
#7932540
1d
1e
1T
1;
b1 R!
b1000001 <!
b100 ;!
b1 H!
b1010 Z!
1q!
1e!
1k!
b1 B
#7950000
03
#7975000
13
#8000000
03
#8025000
13
#8050000
03
#8075000
13
#8100000
03
#8125000
13
#8150000
03
#8172920
0d
0e
0T
0;
#8175000
13
#8200000
03
#8225000
13
#8250000
03
#8275000
13
#8300000
03
#8325000
13
#8350000
03
#8375000
13
#8400000
03
#8413300
1d
1e
1T
1;
b1000001 /"
b1010 G!
#8425000
13
#8450000
03
#8475000
13
#8500000
03
#8525000
13
#8550000
03
#8575000
13
#8600000
03
#8625000
13
#8650000
03
#8653680
0d
0e
0T
0;
#8675000
13
#8700000
03
#8725000
13
#8750000
12
03
0+
0#
0{!
0%
#8775000
13
#8800000
03
#8825000
13
#8850000
03
#8875000
13
#8894060
1d
1e
1T
1;
b1000001 0"
1E!
1D!
1F!
1c!
1a!
1b!
#8894080
1:!
1Y!
#8900000
03
#8925000
13
#8950000
03
#8975000
13
#9000000
03
#9025000
13
#9050000
03
#9075000
13
#9100000
03
#9125000
13
#9134440
0d
0e
0T
0;
#9150000
03
#9175000
13
#9200000
03
#9225000
13
#9250000
03
#9275000
13
#9300000
03
#9325000
13
#9350000
03
#9374820
1d
1e
1T
1;
b1000001 '"
0E!
0D!
0F!
b1 Z!
0c!
0a!
0b!
b1000001 >
#9374830
0:!
0Y!
#9375000
13
#9400000
03
#9425000
13
#9450000
03
#9475000
13
#9500000
03
#9525000
13
#9550000
03
#9575000
13
#9600000
03
#9615200
0d
0e
0T
0;
#9625000
13
#9650000
03
#9675000
13
#9700000
03
#9725000
13
#9750000
03
#9775000
13
#9800000
03
#9825000
13
#9850000
03
#9855580
1d
1e
1T
1;
b1 G!
1E!
1D!
1F!
1c!
1a!
1b!
#9855600
1:!
1Y!
#9875000
13
#9900000
03
#9925000
13
#9950000
03
#9975000
13
#10000000
02
03
#10025000
13
#10050000
03
#10075000
13
#10095960
0d
0e
0T
0;
#10100000
03
#10125000
13
#10150000
03
#10175000
13
#10200000
03
#10225000
13
#10250000
03
#10275000
13
#10300000
03
#10325000
13
#10336340
1d
1e
1T
1;
b1000101 <!
b0 ;!
b10 H!
b1011 Z!
0q!
1i!
#10350000
03
#10375000
13
#10400000
03
#10425000
13
#10450000
03
#10475000
13
#10500000
03
#10525000
13
#10550000
03
#10575000
13
#10576720
0d
0e
0T
0;
#10600000
03
#10625000
13
#10650000
03
#10675000
13
#10700000
03
#10725000
13
#10750000
03
#10775000
13
#10800000
03
#10817100
1d
1e
1T
1;
1I!
b1011 G!
#10825000
13
#10850000
03
#10875000
13
#10900000
03
#10925000
13
#10950000
03
#10975000
13
#11000000
03
#11025000
13
#11050000
03
#11057480
0d
0e
0T
0;
#11075000
13
#11100000
03
#11125000
13
#11150000
03
#11175000
13
#11200000
03
#11225000
13
#11250000
12
03
0*
b0 8"
b0 9"
07"
0$
0|!
0&
#11275000
13
#11297860
1d
1e
1T
1;
0E!
0D!
b0 =!
b10 Z!
0a!
0b!
#11297870
0:!
0Y!
#11300000
03
#11325000
13
#11350000
03
#11375000
13
#11400000
03
#11425000
13
#11450000
03
#11475000
13
#11500000
03
#11525000
13
#11538240
0d
0e
0T
0;
#11550000
03
#11575000
13
#11600000
03
#11625000
13
#11650000
03
#11675000
13
#11700000
03
#11725000
13
#11750000
03
#11775000
13
#11778620
1d
1e
1T
1;
b10 G!
1E!
1D!
1a!
1b!
#11778640
1:!
1Y!
#11800000
03
#11825000
13
#11850000
03
#11875000
13
#11900000
03
#11925000
13
#11950000
03
#11975000
13
#12000000
03
#12019000
0d
0e
0T
0;
#12025000
13
#12050000
03
#12075000
13
#12100000
03
#12125000
13
#12150000
03
#12175000
13
#12200000
03
#12225000
13
#12250000
03
#12259380
1d
1e
1T
1;
b1000111 <!
b11 H!
b1011 Z!
1j!
#12275000
13
#12300000
03
#12325000
13
#12350000
03
#12375000
13
#12400000
03
#12425000
13
#12450000
03
#12475000
13
#12499760
0d
0e
0T
0;
#12500000
02
03
#12525000
13
#12550000
03
#12575000
13
#12600000
03
#12625000
13
#12650000
03
#12675000
13
#12700000
03
#12725000
13
#12740140
1d
1e
1T
1;
0I!
1J!
b1011 G!
#12750000
03
#12775000
13
#12800000
03
#12825000
13
#12850000
03
#12875000
13
#12900000
03
#12925000
13
#12950000
03
#12975000
13
#12980520
0d
0e
0T
0;
#13000000
03
#13025000
13
#13050000
03
#13075000
13
#13100000
03
#13125000
13
#13150000
03
#13175000
13
#13200000
03
#13220900
1d
1e
1T
1;
0E!
0D!
1B!
b11 Z!
0a!
0b!
#13220910
0:!
0Y!
#13225000
13
#13250000
03
#13275000
13
#13300000
03
#13325000
13
#13350000
03
#13375000
13
#13400000
03
#13425000
13
#13450000
03
#13461280
0d
0e
0T
0;
#13475000
13
#13500000
03
#13525000
13
#13550000
03
#13575000
13
#13600000
03
#13625000
13
#13650000
03
#13675000
13
#13700000
03
#13701660
1d
1e
1T
1;
b11 G!
1E!
1D!
1a!
1b!
#13701680
1:!
1Y!
#13725000
13
#13750000
12
03
#13775000
13
#13800000
03
#13825000
13
#13850000
03
#13875000
13
#13900000
03
#13925000
13
#13942040
0d
0e
0T
0;
#13950000
03
#13975000
13
#14000000
03
#14025000
13
#14050000
03
#14075000
13
#14100000
03
#14125000
13
#14150000
03
#14175000
13
#14182420
1d
1e
1T
1;
b100 H!
b1011 Z!
#14200000
03
#14225000
13
#14250000
03
#14275000
13
#14300000
03
#14325000
13
#14350000
03
#14375000
13
#14400000
03
#14422800
0d
0e
0T
0;
#14425000
13
#14450000
03
#14475000
13
#14500000
03
#14525000
13
#14550000
03
#14575000
13
#14600000
03
#14625000
13
#14650000
03
#14663180
1d
1e
1T
1;
b1011 G!
#14675000
13
#14700000
03
#14725000
13
#14750000
03
#14775000
13
#14800000
03
#14825000
13
#14850000
03
#14875000
13
#14900000
03
#14903560
0d
0e
0T
0;
#14925000
13
#14950000
03
#14975000
13
#15000000
02
03
#15025000
13
#15050000
03
#15075000
13
#15100000
03
#15125000
13
#15143940
1d
1e
1T
1;
0E!
0D!
b100 Z!
0a!
0b!
#15143950
0:!
0Y!
#15150000
03
#15175000
13
#15200000
03
#15225000
13
#15250000
03
#15275000
13
#15300000
03
#15325000
13
#15350000
03
#15375000
13
#15384320
0d
0e
0T
0;
#15400000
03
#15425000
13
#15450000
03
#15475000
13
#15500000
03
#15525000
13
#15550000
03
#15575000
13
#15600000
03
#15624700
1d
1e
1T
1;
b100 G!
1E!
1D!
1a!
1b!
#15624720
1:!
1Y!
#15625000
13
#15650000
03
#15675000
13
#15700000
03
#15725000
13
#15750000
03
#15775000
13
#15800000
03
#15825000
13
#15850000
03
#15865080
0d
0e
0T
0;
#15875000
13
#15900000
03
#15925000
13
#15950000
03
#15975000
13
#16000000
03
#16025000
13
#16050000
03
#16075000
13
#16100000
03
#16105460
1d
1e
1T
1;
b1000001 <!
b101 H!
b1010 Z!
0i!
0j!
#16125000
13
#16150000
03
#16175000
13
#16200000
03
#16225000
13
#16250000
12
03
1*
z$
x|!
z&
0-
#16275000
13
#16300000
03
#16325000
13
