firmware/common/verilog/sim/flashctl_tb.vcd
$date
    Jun 27, 2015  18:52:56
$end
$version
    TOOL:	ncsim(64)	13.20-s028
$end
$timescale
    1 ps
$end

$scope module flashctl_tb $end
$var parameter  8 !    I2C_ADDR  $end
$var parameter 32 "    TEST_BUFFER_DEPTH  $end
$var wire      1 #    i2c_sda  $end
$var wire      1 $    i2c_scl  $end
$var wire      1 %    i2c_sda_in  $end
$var wire      1 &    i2c_scl_in  $end
$var wire      1 '    sys_rst  $end
$var wire      1 (    ledr  $end
$var wire      1 )    ledg  $end
$var reg       1 *    i2c_scl_out  $end
$var reg       1 +    i2c_sda_out  $end
$var reg       1 ,    i2c_ackn  $end
$var reg       1 -    i2c_din  $end
$var reg       1 .    i2c_toggle  $end
$var reg       8 /    i2c_addr [7:0] $end
$var reg      32 0    outBuf_count [31:0] $end
$var reg       1 1    flush_active  $end
$var reg       8 2    serial_input [7:0] $end
$var reg       1 3    i2c_active  $end
$var reg       1 4    i2c_clk  $end
$var reg       1 5    clk_20mhz  $end
$var reg       1 6    GSRnX  $end
$var integer  32 7    i  $end

$scope module PUR_INST $end
$var wire      1 8    PUR  $end
$var parameter 32 9    RST_PULSE  $end
$var reg       1 :    PURNET  $end
$upscope $end


$scope module GSR_INST $end
$var wire      1 ;    GSR  $end
$var wire      1 <    GSRNET  $end
$upscope $end


$scope module i_flasher $end
$var wire      1 #    SDA  $end
$var wire      1 $    SCL  $end
$var wire      1 '    GSRn  $end
$var wire      1 (    LEDR  $end
$var wire      1 )    LEDG  $end
$var wire      1 =    xclk  $end
$var wire      1 >    red_flash  $end
$var wire      1 ?    green_flash  $end
$var wire      8 @    XO [7:0] $end
$var wire      1 A    GSRnX  $end
$var wire     32 B    MiscReg [31:0] $end
$var wire      1 C    XI_PWr  $end
$var wire     16 D    XI_PRWA [15:0] $end
$var wire      1 E    XI_PRdFinished  $end
$var wire     128 F    XI_PRdSubA [127:0] $end
$var wire      6 G    XI_PD [5:0] $end
$var reg       1 H    r  $end
$var reg       1 I    g  $end

$scope module IBgsr $end
$var wire      1 '    I  $end
$var wire      1 A    O  $end
$upscope $end


$scope module GSR_GSR $end
$var wire      1 A    GSR  $end
$var wire      1 J    GSRNET  $end
$upscope $end


$scope module i_pif_flasher $end
$var wire      1 >    red  $end
$var wire      1 ?    green  $end
$var wire      1 =    xclk  $end
$var wire      1 A    sys_rst  $end
$var parameter 32 K    SIM_OSC_STR  $end
$var parameter 32 L    OSC_STR  $end
$var parameter 32 M    OSC_RATE  $end
$var parameter 32 N    TICK_RATE  $end
$var parameter 32 O    B  $end
$var parameter 32 P    FREQ_DIV  $end
$var parameter 32 Q    SIM_TICK_LEN  $end
$var parameter 32 R    TICK_LEN  $end
$var parameter 32 S    SIM_CLEN  $end
$var parameter 32 T    CLEN  $end
$var wire      4 U    DIV [3:0] $end
$var wire      1 V    osc  $end
$var wire      1 W    Tick  $end
$var wire      1 X    LoadN  $end
$var wire      5 Y    Delta [4:0] $end
$var wire      2 Z    LedPhase [1:0] $end
$var reg       1 [    LedOn  $end
$var reg       1 \    R  $end
$var reg       1 ]    G  $end
$var reg       6 ^    Accum [5:0] $end
$var reg       7 _    DeltaReg [6:0] $end
$var reg       6 `    Acc [5:0] $end
$var reg       6 a    Delt [5:0] $end

$scope module i_OSCH $end
$var wire      1 b    STDBY  $end
$var wire      1 V    OSC  $end
$var wire      1 c    SEDSTDBY  $end
$var parameter 32 d    NOM_FREQ  $end
$var wire      1 e    STDBYb  $end
$var reg       1 f    OSCb  $end
$var reg       1 g    OSC_r  $end
$var real     64 h    half_clk  $end
$upscope $end


$scope module i_DownCounter $end
$var parameter 32 i    BITS  $end
$var wire      1 V    Clk  $end
$var wire      1 A    sys_rst  $end
$var wire      1 X    LoadN  $end
$var wire      1 j    CE  $end
$var wire      4 U    InitialVal [3:0] $end
$var wire      1 W    zero  $end
$var reg       5 k    Ctr [4:0] $end
$upscope $end

$upscope $end


$scope module i_pifwb $end
$var wire      1 $    i2c_SCL  $end
$var wire      1 #    i2c_SDA  $end
$var wire      1 =    xclk  $end
$var reg       1 l    XI_PWr  $end
$var reg      16 m    XI_PRWA [15:0] $end
$var reg       1 n    XI_PRdFinished  $end
$var reg      128 o    XI_PRdSubA [127:0] $end
$var reg       6 p    XI_PD [5:0] $end
$var wire      8 @    XO [7:0] $end
$var wire      1 A    sys_rst  $end
$var parameter  4 q    WBstart  $end
$var parameter  4 r    WBinit1  $end
$var parameter  4 s    WBinit2  $end
$var parameter  4 t    WBinit3  $end
$var parameter  4 u    WBinit4  $end
$var parameter  4 v    WBidle  $end
$var parameter  4 w    WBwaitTR  $end
$var parameter  4 x    WBin0  $end
$var parameter  4 y    WBout0  $end
$var parameter  4 z    WBout1  $end
$var parameter  4 {    WBwr  $end
$var parameter  4 |    WBrd  $end
$var parameter  8 }    I2C1_CR [7:0] $end
$var parameter  8 ~    I2C1_CMDR [7:0] $end
$var parameter  8 !!   I2C1_BR0 [7:0] $end
$var parameter  8 "!   I2C1_BR1 [7:0] $end
$var parameter  8 #!   I2C1_TXDR [7:0] $end
$var parameter  8 $!   I2C1_SR [7:0] $end
$var parameter  8 %!   I2C1_GCDR [7:0] $end
$var parameter  8 &!   I2C1_RXDR [7:0] $end
$var parameter  8 '!   I2C1_IRQ [7:0] $end
$var parameter  8 (!   I2C1_IRQEN [7:0] $end
$var parameter  8 )!   I2C2_CR [7:0] $end
$var parameter  8 *!   I2C2_CMDR [7:0] $end
$var parameter  8 +!   I2C2_BR0 [7:0] $end
$var parameter  8 ,!   I2C2_BR1 [7:0] $end
$var parameter  8 -!   I2C2_TXDR [7:0] $end
$var parameter  8 .!   I2C2_SR [7:0] $end
$var parameter  8 /!   I2C2_GCDR [7:0] $end
$var parameter  8 0!   I2C2_RXDR [7:0] $end
$var parameter  8 1!   I2C2_IRQ [7:0] $end
$var parameter  8 2!   I2C2_IRQEN [7:0] $end
$var parameter  8 3!   CFG_CR [7:0] $end
$var parameter  8 4!   CFG_TXDR [7:0] $end
$var parameter  8 5!   CFG_SR [7:0] $end
$var parameter  8 6!   CFG_RXDR [7:0] $end
$var parameter  8 7!   CFG_IRQ [7:0] $end
$var parameter  8 8!   CFG_IRQEN [7:0] $end
$var wire      1 9!   wbDat_o [7] $end
$var wire      1 :!   wbDat_o [6] $end
$var wire      1 ;!   wbDat_o [5] $end
$var wire      1 <!   wbDat_o [4] $end
$var wire      1 =!   wbDat_o [3] $end
$var wire      1 >!   wbDat_o [2] $end
$var wire      1 ?!   wbDat_o [1] $end
$var wire      1 @!   wbDat_o [0] $end
$var wire      1 A!   wbAck_o  $end
$var reg       8 B!   wbDat_i [7:0] $end
$var reg       8 C!   wbAddr [7:0] $end
$var reg       8 D!   wbOutBuff [7:0] $end
$var reg       1 E!   busy  $end
$var reg       1 F!   txReady  $end
$var reg       1 G!   rxReady  $end
$var reg       1 H!   lastTxNak  $end
$var reg       1 I!   isAddr  $end
$var reg       1 J!   isData  $end
$var reg       1 K!   wbCyc  $end
$var reg       1 L!   wbStb  $end
$var reg       1 M!   wbWe  $end
$var reg       4 N!   WBstate [3:0] $end
$var reg       4 O!   rwReturn [3:0] $end
$var reg       1 P!   hitI2CSR  $end
$var reg       1 Q!   hitI2CRXDR  $end
$var reg       1 R!   hitCFGRXDR  $end
$var reg       1 S!   cfgBusy  $end
$var reg      128 T!   RdSubAddr [127:0] $end
$var reg      128 U!   WrSubAddr [127:0] $end
$var reg      16 V!   rwAddr [15:0] $end
$var reg       6 W!   inData [5:0] $end
$var reg       1 X!   XIloc_PWr  $end
$var reg      16 Y!   XIloc_PRWA [15:0] $end
$var reg       1 Z!   XIloc_PRdFinished  $end
$var reg      128 [!   XIloc_PRdSubA [127:0] $end
$var reg       6 \!   XIloc_PD [5:0] $end
$var reg       1 ]!   read_active  $end
$var reg       1 ^!   write_active  $end
$var reg      16 _!   rst_pipe [15:0] $end
$var wire      1 `!   rst  $end
$var wire      1 a!   wbRst  $end
$var wire      1 b!   wbAck  $end
$var reg       4 c!   nextState [3:0] $end
$var reg       1 d!   vSlaveTransmitting  $end
$var reg       1 e!   vTxRxRdy  $end
$var reg       1 f!   vBusy  $end
$var reg       1 g!   vTIP  $end
$var reg       1 h!   vRARC  $end
$var reg       1 i!   vTROE  $end

$scope module myEFB $end
$var wire      1 =    wb_clk_i  $end
$var wire      1 a!   wb_rst_i  $end
$var wire      1 j!   wb_cyc_i  $end
$var wire      1 k!   wb_stb_i  $end
$var wire      1 l!   wb_we_i  $end
$var wire      1 m!   wb_adr_i [7] $end
$var wire      1 n!   wb_adr_i [6] $end
$var wire      1 o!   wb_adr_i [5] $end
$var wire      1 p!   wb_adr_i [4] $end
$var wire      1 q!   wb_adr_i [3] $end
$var wire      1 r!   wb_adr_i [2] $end
$var wire      1 s!   wb_adr_i [1] $end
$var wire      1 t!   wb_adr_i [0] $end
$var wire      1 u!   wb_dat_i [7] $end
$var wire      1 v!   wb_dat_i [6] $end
$var wire      1 w!   wb_dat_i [5] $end
$var wire      1 x!   wb_dat_i [4] $end
$var wire      1 y!   wb_dat_i [3] $end
$var wire      1 z!   wb_dat_i [2] $end
$var wire      1 {!   wb_dat_i [1] $end
$var wire      1 |!   wb_dat_i [0] $end
$var wire      1 9!   wb_dat_o [7] $end
$var wire      1 :!   wb_dat_o [6] $end
$var wire      1 ;!   wb_dat_o [5] $end
$var wire      1 <!   wb_dat_o [4] $end
$var wire      1 =!   wb_dat_o [3] $end
$var wire      1 >!   wb_dat_o [2] $end
$var wire      1 ?!   wb_dat_o [1] $end
$var wire      1 @!   wb_dat_o [0] $end
$var wire      1 A!   wb_ack_o  $end
$var wire      1 }!   i2c1_irqo  $end
$var wire      1 $    i2c1_scl  $end
$var wire      1 #    i2c1_sda  $end
$var wire      1 ~!   scuba_vhi  $end
$var wire      1 !"   scuba_vlo  $end
$var wire      1 ""   i2c1_sdaoen  $end
$var wire      1 #"   i2c1_sdao  $end
$var wire      1 $"   i2c1_scloen  $end
$var wire      1 %"   i2c1_sclo  $end
$var wire      1 &"   i2c1_sdai  $end
$var wire      1 '"   i2c1_scli  $end

$scope module scuba_vhi_inst $end
$var wire      1 ~!   Z  $end
$var supply1   1 ("   VSS  $end
$upscope $end


$scope module scuba_vlo_inst $end
$var wire      1 !"   Z  $end
$var supply0   1 )"   VSS  $end
$upscope $end


$scope module BB1_sda $end
$var wire      1 #"   I  $end
$var wire      1 ""   T  $end
$var wire      1 &"   O  $end
$var wire      1 #    B  $end
$var supply1   1 *"   TSALL  $end
$var wire      1 +"   TN  $end
$var wire      1 ,"   ENH  $end
$upscope $end


$scope module BB1_scl $end
$var wire      1 %"   I  $end
$var wire      1 $"   T  $end
$var wire      1 '"   O  $end
$var wire      1 $    B  $end
$var supply1   1 -"   TSALL  $end
$var wire      1 ."   TN  $end
$var wire      1 /"   ENH  $end
$upscope $end

$upscope $end

$upscope $end


$scope module i_pifctl $end
$var wire      1 =    xclk  $end
$var wire      1 C    XI_PWr  $end
$var wire     16 D    XI_PRWA [15:0] $end
$var wire      1 E    XI_PRdFinished  $end
$var wire     128 F    XI_PRdSubA [127:0] $end
$var wire      6 G    XI_PD [5:0] $end
$var reg       8 0"   XO [7:0] $end
$var reg      32 1"   MiscReg [31:0] $end
$var wire      1 A    sys_rst  $end
$var reg       6 2"   ScratchReg [5:0] $end
$var reg      32 3"   MiscRegLocal [31:0] $end
$var reg      32 4"   subAddr [31:0] $end
$var reg       8 5"   IDscratch [7:0] $end
$var reg       8 6"   IDletter [7:0] $end
$var reg       8 7"   subOut [7:0] $end
$var reg       8 8"   regOut [7:0] $end
$var reg       8 9"   IdReadback [7:0] $end

$scope function to_4bit_vector $end
$var reg       4 :"   to_4bit_vector [3:0] $end
$var reg       1 ;"   arg  $end
$upscope $end

$upscope $end


$scope module REG_BUF $end
$var wire      1 <"   I  $end
$var wire      1 (    O  $end
$var supply1   1 ="   TSALL  $end
$upscope $end


$scope module GREEN_BUF $end
$var wire      1 >"   I  $end
$var wire      1 )    O  $end
$var supply1   1 ?"   TSALL  $end
$upscope $end

$upscope $end


$scope task i2c_sendbit $end
$var reg       1 @"   bit  $end
$upscope $end


$scope task i2c_sendbyte $end
$var reg       8 A"   byte [7:0] $end
$var integer  32 B"   i  $end
$upscope $end


$scope task i2c_recvbyte $end
$var reg       8 C"   v [7:0] $end
$var integer  32 D"   i  $end
$upscope $end


$scope task i2c_wr_start $end
$var reg       8 E"   i2c_addr_i [7:0] $end
$upscope $end


$scope task i2c_rd_start $end
$var reg       8 F"   i2c_addr_i [7:0] $end
$upscope $end


$scope task waitfor $end
$var reg      32 G"   ticks [31:0] $end
$upscope $end


$scope task write_bus $end
$var reg       8 H"   x [7:0] $end
$var integer  32 I"   n  $end
$upscope $end


$scope task write_data $end
$var reg       6 J"   V [5:0] $end
$upscope $end


$scope task write_addr $end
$var reg       6 K"   Addr [5:0] $end
$upscope $end


$scope task flush $end
$var reg       8 L"   i2c_slv_addr [7:0] $end
$var integer  32 M"   n  $end
$var integer  32 N"   i  $end
$var reg       8 O"   byte [7:0] $end
$upscope $end


$scope task read_reg $end
$var reg       8 P"   i2c_addr_i [7:0] $end
$var reg       1 Q"   read_count  $end
$var reg       8 R"   v [7:0] $end
$var integer  32 S"   i  $end
$upscope $end

$upscope $end

$enddefinitions $end
$dumpvars
b1110101 8!
b1110100 7!
b1110011 6!
b1110010 5!
b1110001 4!
b1110000 3!
b1010011 2!
b1010010 1!
b1010001 0!
b1010000 /!
b1001111 .!
b1001110 -!
b1001101 ,!
b1001100 +!
b1001011 *!
b1001010 )!
b1001001 (!
b1001000 '!
b1000111 &!
b1000110 %!
b1000101 $!
b1000100 #!
b1000011 "!
b1000010 !!
b1000001 ~
b1000000 }
b1011 |
b1010 {
b1001 z
b1000 y
b111 x
b110 w
b101 v
b100 u
b11 t
b10 s
b1 r
b0 q
b100 i
b110010001011100011000000111000 d
b100 T
b100 S
b1000 R
b1000 Q
b11110011001110111011010 P
b101 O
b10010110 N
b1000111010000100111111000000000 M
b110010001011100011000000111000 L
b110010001011100011000000111000 K
b1 9
b101 "
b10000010 !
x#
1$
x%
1&
0'
0(
0)
1*
1+
0,
x-
0.
b10000010 /
b0 0
01
b0 2
03
04
05
06
b101 7
18
0:
1;
1<
0=
0>
0?
b0 @
0A
b0 B
xC
bx D
xE
bx F
bx G
0H
0I
0J
b1000 U
0V
0W
1X
b0 Y
b0 Z
0[
0\
0]
b0 ^
b0 _
b0 `
b0 a
0b
0c
0e
0f
0g
r240.38 h
1j
b0 k
xl
bx m
xn
bx o
bx p
09!
0:!
0;!
0<!
0=!
0>!
0?!
0@!
0A!
bx B!
bx C!
bx D!
xE!
xF!
xG!
xH!
xI!
xJ!
xK!
xL!
xM!
bx N!
bx O!
xP!
xQ!
xR!
xS!
bx T!
bx U!
bx V!
bx W!
xX!
bx Y!
xZ!
bx [!
bx \!
x]!
x^!
b1111111111111111 _!
1`!
1a!
0b!
b0 c!
xd!
xe!
xf!
xg!
xh!
xi!
xj!
xk!
xl!
xm!
xn!
xo!
xp!
xq!
xr!
xs!
xt!
xu!
xv!
xw!
xx!
xy!
xz!
x{!
x|!
0}!
1~!
0!"
x""
0#"
1$"
0%"
x&"
1'"
1("
0)"
1*"
x+"
x,"
1-"
0."
0/"
b0 0"
b0 1"
b10101 2"
b0 3"
b0 4"
b0 5"
b0 6"
b0 7"
b0 8"
b0 9"
bx :"
x;"
0<"
1="
0>"
1?"
x@"
bx A"
bx B"
bx C"
bx D"
bx E"
bx F"
bx G"
bx H"
bx I"
bx J"
bx K"
bx L"
bx M"
bx N"
bx O"
bx P"
xQ"
bx R"
bx S"
$end
#10
1""
0+"
0,"
1#
1&"
1%
#1000
1:
#25000
15
#50000
05
#75000
15
#100000
16
05
1'
1A
1J
b1000001 7"
b1010101 5"
b110xxxx 6"
bx 4"
b110xxxx 7"
#125000
15
#150000
05
#175000
15
#200000
05
#225000
15
#240380
1f
1g
1V
1=
b11111 k
1\
1]
b1111111111111110 _!
0l
b0 m
0n
b0 o
b0 p
b0 Y!
b0 [!
0Z!
b1 V!
b0 T!
b0 U!
b0 \!
0X!
0P!
0Q!
0R!
b0 N!
b0 O!
0L!
0K!
0M!
0E!
0F!
0G!
0H!
b0 C!
b0 B!
0g!
0f!
0h!
0d!
0e!
0i!
0I!
0J!
b0 W!
0S!
0u!
0v!
0w!
0x!
0y!
0z!
0{!
0|!
0m!
0n!
0o!
0p!
0q!
0r!
0s!
0t!
0l!
0j!
0k!
1W
b0 G
b0 F
0E
b0 D
0C
1?
1>
0;"
b0 :"
b1100000 6"
b0 4"
1H
1I
b1000001 7"
1>"
1<"
0X
1(
1)
#250000
05
#275000
15
#300000
05
#325000
15
#350000
05
#375000
15
#400000
05
#425000
15
#450000
05
#475000
15
#480760
0f
0g
0V
0=
#500000
05
#525000
15
#550000
05
#575000
15
#600000
05
#625000
15
#650000
05
#675000
15
#700000
05
#721140
1f
1g
1V
1=
b1000 k
b1 _
b1111111111111100 _!
b1 Y
0W
1X
#725000
15
#750000
05
#775000
15
#800000
05
#825000
15
#850000
05
#875000
15
#900000
05
#925000
15
#950000
05
#961520
0f
0g
0V
0=
#975000
15
#1000000
05
#1025000
15
#1050000
05
#1075000
15
#1100000
05
#1125000
15
#1150000
05
#1175000
15
#1200000
05
#1201900
1f
1g
1V
1=
b111 k
b1 a
b1111111111111000 _!
#1225000
15
#1250000
14
05
#1275000
15
#1300000
05
#1325000
15
#1350000
05
#1375000
15
#1400000
05
#1425000
15
#1442280
0f
0g
0V
0=
#1450000
05
#1475000
15
#1500000
05
#1525000
15
#1550000
05
#1575000
15
#1600000
05
#1625000
15
#1650000
05
#1675000
15
#1682660
1f
1g
1V
1=
b110 k
b1 ^
b1111111111110000 _!
#1700000
05
#1725000
15
#1750000
05
#1775000
15
#1800000
05
#1825000
15
#1850000
05
#1875000
15
#1900000
05
#1923040
0f
0g
0V
0=
#1925000
15
#1950000
05
#1975000
15
#2000000
05
#2025000
15
#2050000
05
#2075000
15
#2100000
05
#2125000
15
#2150000
05
#2163420
1f
1g
1V
1=
b101 k
b1 `
b1111111111100000 _!
#2175000
15
#2200000
05
#2225000
15
#2250000
05
#2275000
15
#2300000
05
#2325000
15
#2350000
05
#2375000
15
#2400000
05
#2403800
0f
0g
0V
0=
#2425000
15
#2450000
05
#2475000
15
#2500000
04
05
#2525000
15
#2550000
05
#2575000
15
#2600000
05
#2625000
15
#2644180
1f
1g
1V
1=
b100 k
b10 ^
b1111111111000000 _!
#2650000
05
#2675000
15
#2700000
05
#2725000
15
#2750000
05
#2775000
15
#2800000
05
#2825000
15
#2850000
05
#2875000
15
#2884560
0f
0g
0V
0=
#2900000
05
#2925000
15
#2950000
05
#2975000
15
#3000000
05
#3025000
15
#3050000
05
#3075000
15
#3100000
05
#3124940
1f
1g
1V
1=
b11 k
b10 `
b1111111110000000 _!
#3125000
15
#3150000
05
#3175000
15
#3200000
05
#3225000
15
#3250000
05
#3275000
15
#3300000
05
#3325000
15
#3350000
05
#3365320
0f
0g
0V
0=
#3375000
15
#3400000
05
#3425000
15
#3450000
05
#3475000
15
#3500000
05
#3525000
15
#3550000
05
#3575000
15
#3600000
05
#3605700
1f
1g
1V
1=
b10 k
b11 ^
b1111111100000000 _!
#3625000
15
#3650000
05
#3675000
15
#3700000
05
#3725000
15
#3750000
14
05
#3775000
15
#3800000
05
#3825000
15
#3846080
0f
0g
0V
0=
#3850000
05
#3875000
15
#3900000
05
#3925000
15
#3950000
05
#3975000
15
#4000000
05
#4025000
15
#4050000
05
#4075000
15
#4086460
1f
1g
1V
1=
b1 k
b11 `
b1111111000000000 _!
#4100000
05
#4125000
15
#4150000
05
#4175000
15
#4200000
05
#4225000
15
#4250000
05
#4275000
15
#4300000
05
#4325000
15
#4326840
0f
0g
0V
0=
#4350000
05
#4375000
15
#4400000
05
#4425000
15
#4450000
05
#4475000
15
#4500000
05
#4525000
15
#4550000
05
#4567220
1f
1g
1V
1=
b0 k
b100 ^
b1111110000000000 _!
#4575000
15
#4600000
05
#4625000
15
#4650000
05
#4675000
15
#4700000
05
#4725000
15
#4750000
05
#4775000
15
#4800000
05
#4807600
0f
0g
0V
0=
#4825000
15
#4850000
05
#4875000
15
#4900000
05
#4925000
15
#4950000
05
#4975000
15
#5000000
04
05
#5025000
15
#5047980
1f
1g
1V
1=
b11111 k
b100 `
b1111100000000000 _!
1W
0X
#5050000
05
#5075000
15
#5100000
05
#5125000
15
#5150000
05
#5175000
15
#5200000
05
#5225000
15
#5250000
05
#5275000
15
#5288360
0f
0g
0V
0=
#5300000
05
#5325000
15
#5350000
05
#5375000
15
#5400000
05
#5425000
15
#5450000
05
#5475000
15
#5500000
05
#5525000
15
#5528740
1f
1g
1V
1=
b1000 k
b0 ^
b10 _
b1111000000000000 _!
b10 Y
0W
1X
#5550000
05
#5575000
15
#5600000
05
#5625000
15
#5650000
05
#5675000
15
#5700000
05
#5725000
15
#5750000
05
#5769120
0f
0g
0V
0=
#5775000
15
#5800000
05
#5825000
15
#5850000
05
#5875000
15
#5900000
05
#5925000
15
#5950000
05
#5975000
15
#6000000
05
#6009500
1f
1g
1V
1=
b111 k
b0 `
b10 a
b101 ^
b1110000000000000 _!
#6025000
15
#6050000
05
#6075000
15
#6100000
05
#6125000
15
#6150000
05
#6175000
15
#6200000
05
#6225000
15
#6249880
0f
0g
0V
0=
#6250000
14
05
#6275000
15
#6300000
05
#6325000
15
#6350000
05
#6375000
15
#6400000
05
#6425000
15
#6450000
05
#6475000
15
#6490260
1f
1g
1V
1=
b110 k
b101 `
b10 ^
b1100000000000000 _!
#6500000
05
#6525000
15
#6550000
05
#6575000
15
#6600000
05
#6625000
15
#6650000
05
#6675000
15
#6700000
05
#6725000
15
#6730640
0f
0g
0V
0=
#6750000
05
#6775000
15
#6800000
05
#6825000
15
#6850000
05
#6875000
15
#6900000
05
#6925000
15
#6950000
05
#6971020
1f
1g
1V
1=
b101 k
b10 `
b111 ^
b1000000000000000 _!
#6975000
15
#7000000
05
#7025000
15
#7050000
05
#7075000
15
#7100000
05
#7125000
15
#7150000
05
#7175000
15
#7200000
05
#7211400
0f
0g
0V
0=
#7225000
15
#7250000
05
#7275000
15
#7300000
05
#7325000
15
#7350000
05
#7375000
15
#7400000
05
#7425000
15
#7450000
05
#7451780
1f
1g
1V
1=
b100 k
b111 `
b100 ^
b0 _!
0`!
0a!
b1010 c!
#7475000
15
#7500000
04
05
#7525000
15
#7550000
05
#7575000
15
#7600000
05
#7625000
15
#7650000
05
#7675000
15
#7692160
0f
0g
0V
0=
#7700000
05
#7725000
15
#7750000
05
#7775000
15
#7800000
05
#7825000
15
#7850000
05
#7875000
15
#7900000
05
#7925000
15
#7932540
1f
1g
1V
1=
b11 k
b100 `
b1001 ^
b1 Y!
b1010 N!
b1000001 C!
b100 B!
b1 O!
1z!
1n!
1t!
#7950000
05
#7975000
15
#8000000
05
#8025000
15
#8050000
05
#8075000
15
#8100000
05
#8125000
15
#8150000
05
#8172920
0f
0g
0V
0=
#8175000
15
#8200000
05
#8225000
15
#8250000
05
#8275000
15
#8300000
05
#8325000
15
#8350000
05
#8375000
15
#8400000
05
#8413300
1f
1g
1V
1=
1^!
0]!
b10 k
b1001 `
b110 ^
b1 m
1L!
1K!
1M!
1l!
1j!
1k!
b1 D
b1000001 8"
#8413320
1A!
1b!
b1 c!
#8425000
15
#8450000
05
#8475000
15
#8500000
05
#8525000
15
#8550000
05
#8575000
15
#8600000
05
#8625000
15
#8650000
05
#8653680
0f
0g
0V
0=
#8675000
15
#8700000
05
#8725000
15
#8750000
14
05
#8775000
15
#8800000
05
#8825000
15
#8850000
05
#8875000
15
#8894060
1f
1g
1V
1=
b1 k
b110 `
b1011 ^
b1000001 9"
b1 N!
0L!
0K!
0M!
b1011 c!
0l!
0j!
0k!
#8894070
0A!
0b!
#8900000
05
#8925000
15
#8950000
05
#8975000
15
#9000000
05
#9025000
15
#9050000
05
#9075000
15
#9100000
05
#9125000
15
#9134440
0f
0g
0V
0=
#9150000
05
#9175000
15
#9200000
05
#9225000
15
#9250000
05
#9275000
15
#9300000
05
#9325000
15
#9350000
05
#9374820
1f
1g
1V
1=
b0 k
b1011 `
b1000 ^
b1000001 0"
b1011 N!
b1000101 C!
b0 B!
b10 O!
0z!
1r!
b1000001 @
#9375000
15
#9400000
05
#9425000
15
#9450000
05
#9475000
15
#9500000
05
#9525000
15
#9550000
05
#9575000
15
#9600000
05
#9615200
0f
0g
0V
0=
#9625000
15
#9650000
05
#9675000
15
#9700000
05
#9725000
15
#9750000
05
#9775000
15
#9800000
05
#9825000
15
#9850000
05
#9855580
1f
1g
1V
1=
0^!
1]!
b11111 k
b1000 `
b1101 ^
1P!
1L!
1K!
1j!
1k!
1W
0X
#9855600
1A!
1b!
b10 c!
1;!
1h!
#9875000
15
#9900000
05
#9925000
15
#9950000
05
#9975000
15
#10000000
04
05
#10025000
15
#10050000
05
#10075000
15
#10095960
0f
0g
0V
0=
#10100000
05
#10125000
15
#10150000
05
#10175000
15
#10200000
05
#10225000
15
#10250000
05
#10275000
15
#10300000
05
#10325000
15
#10336340
1f
1g
1V
1=
b1000 k
b0 ^
b11 _
b10 N!
0L!
0K!
b100000 D!
b1011 c!
0j!
0k!
b11 Y
0W
1X
0;!
#10336350
0A!
0b!
#10350000
05
#10375000
15
#10400000
05
#10425000
15
#10450000
05
#10475000
15
#10500000
05
#10525000
15
#10550000
05
#10575000
15
#10576720
0f
0g
0V
0=
#10600000
05
#10625000
15
#10650000
05
#10675000
15
#10700000
05
#10725000
15
#10750000
05
#10775000
15
#10800000
05
#10817100
1f
1g
1V
1=
b111 k
b0 `
b11 a
b1010 ^
b1011 N!
b1000111 C!
b11 O!
1s!
#10825000
15
#10850000
05
#10875000
15
#10900000
05
#10925000
15
#10950000
05
#10975000
15
#11000000
05
#11025000
15
#11050000
05
#11057480
0f
0g
0V
0=
#11075000
15
#11100000
05
#11125000
15
#11150000
05
#11175000
15
#11200000
05
#11225000
15
#11250000
14
05
#11275000
15
#11297860
1f
1g
1V
1=
b110 k
b1010 `
b11 ^
0P!
1Q!
1L!
1K!
1j!
1k!
#11297880
1A!
1b!
b11 c!
#11300000
05
#11325000
15
#11350000
05
#11375000
15
#11400000
05
#11425000
15
#11450000
05
#11475000
15
#11500000
05
#11525000
15
#11538240
0f
0g
0V
0=
#11550000
05
#11575000
15
#11600000
05
#11625000
15
#11650000
05
#11675000
15
#11700000
05
#11725000
15
#11750000
05
#11775000
15
#11778620
1f
1g
1V
1=
b101 k
b11 `
b1101 ^
b11 N!
0L!
0K!
1I!
b0 D!
b1011 c!
0j!
0k!
#11778630
0A!
0b!
#11800000
05
#11825000
15
#11850000
05
#11875000
15
#11900000
05
#11925000
15
#11950000
05
#11975000
15
#12000000
05
#12019000
0f
0g
0V
0=
#12025000
15
#12050000
05
#12075000
15
#12100000
05
#12125000
15
#12150000
05
#12175000
15
#12200000
05
#12225000
15
#12250000
05
#12259380
1f
1g
1V
1=
b100 k
b1101 `
b110 ^
b1011 N!
b100 O!
#12275000
15
#12300000
05
#12325000
15
#12350000
05
#12375000
15
#12400000
05
#12425000
15
#12450000
05
#12475000
15
#12499760
0f
0g
0V
0=
#12500000
04
05
#12525000
15
#12550000
05
#12575000
15
#12600000
05
#12625000
15
#12650000
05
#12675000
15
#12700000
05
#12725000
15
#12740140
1f
1g
1V
1=
b11 k
b110 `
b10000 ^
1L!
1K!
1j!
1k!
#12740160
1A!
1b!
b100 c!
#12750000
05
#12775000
15
#12800000
05
#12825000
15
#12850000
05
#12875000
15
#12900000
05
#12925000
15
#12950000
05
#12975000
15
#12980520
0f
0g
0V
0=
#13000000
05
#13025000
15
#13050000
05
#13075000
15
#13100000
05
#13125000
15
#13150000
05
#13175000
15
#13200000
05
#13220900
1f
1g
1V
1=
b10 k
b10000 `
b1001 ^
b100 N!
0L!
0K!
b1010 c!
0j!
0k!
#13220910
0A!
0b!
#13225000
15
#13250000
05
#13275000
15
#13300000
05
#13325000
15
#13350000
05
#13375000
15
#13400000
05
#13425000
15
#13450000
05
#13461280
0f
0g
0V
0=
#13475000
15
#13500000
05
#13525000
15
#13550000
05
#13575000
15
#13600000
05
#13625000
15
#13650000
05
#13675000
15
#13700000
05
#13701660
1f
1g
1V
1=
b1 k
b1001 `
b10011 ^
b1010 N!
b1000001 C!
b101 O!
0r!
0s!
#13725000
15
#13750000
14
05
#13775000
15
#13800000
05
#13825000
15
#13850000
05
#13875000
15
#13900000
05
#13925000
15
#13942040
0f
0g
0V
0=
#13950000
05
#13975000
15
#14000000
05
#14025000
15
#14050000
05
#14075000
15
#14100000
05
#14125000
15
#14150000
05
#14175000
15
#14182420
1f
1g
1V
1=
1^!
0]!
b0 k
b10011 `
b1100 ^
0Q!
1L!
1K!
1M!
1l!
1j!
1k!
#14182440
1A!
1b!
b101 c!
#14200000
05
#14225000
15
#14250000
05
#14275000
15
#14300000
05
#14325000
15
#14350000
05
#14375000
15
#14400000
05
#14422800
0f
0g
0V
0=
#14425000
15
#14450000
05
#14475000
15
#14500000
05
#14525000
15
#14550000
05
#14575000
15
#14600000
05
#14625000
15
#14650000
05
#14663180
1f
1g
1V
1=
b11111 k
b1100 `
b10110 ^
b101 N!
0L!
0K!
0M!
b1011 c!
0l!
0j!
0k!
1W
0X
#14663190
0A!
0b!
#14675000
15
#14700000
05
#14725000
15
#14750000
05
#14775000
15
#14800000
05
#14825000
15
#14850000
05
#14875000
15
#14900000
05
#14903560
0f
0g
0V
0=
#14925000
15
#14950000
05
#14975000
15
#15000000
04
05
#15025000
15
#15050000
05
#15075000
15
#15100000
05
